[
    [
        "lab4.py 29",
        "ZeroDivisionError",
        "Traceback (most recent call last):\n  File \"lab4.py\", line 29, in <module>\n    raise ZeroDivisionError()\nZeroDivisionError\n",
        "It's NOT good! Bad"
    ],
    [
        "lab4.py 33",
        "NameError",
        "Traceback (most recent call last):\n  File \"lab4.py\", line 33, in <module>\n    raise NameError()\nNameError\n",
        "What is your name, sir?"
    ],
    [
        "lab4.py 37",
        "SyntaxError: <no detail available>",
        "Traceback (most recent call last):\n  File \"lab4.py\", line 37, in <module>\n    raise SyntaxError()\n  File \"<string>\", line None\nSyntaxError: <no detail available>\n",
        "invalid syntax"
    ],
    [
        "lab4.py 41",
        "FileNotFoundError",
        "Traceback (most recent call last):\n  File \"lab4.py\", line 41, in <module>\n    raise FileNotFoundError()\nFileNotFoundError\n",
        "No such file or directory"
    ]
]